Introduction to R demos
…
Counting of one variable is great, but count() is also
capable of counting the number of observations associated with
combinations of variables. All we have to do is pass in additional
arguments to the count(). The code chunk below shows how we
can count the number of rows associated with the combination of
eye_color and hair_color. The display is then
ordered by the number of observations in descending order.

starwars %>% 
  count(eye_color, hair_color) %>% 
  arrange(desc(n))

## # A tibble: 35 × 3
##    eye_color hair_color     n
##    <chr>     <chr>      <int>
##  1 black     none           9
##  2 brown     black          9
##  3 brown     brown          9
##  4 blue      brown          7
##  5 orange    none           7
##  6 yellow    none           6
##  7 blue      blond          3
##  8 blue      none           3
##  9 red       none           3
## 10 blue      black          2
## # … with 25 more rows
…
We can use the result of the count() function calculate
the fraction or proportion of the rows. We can pipe the result
mutate() and perform additional operations as we want. The
code chunk below demonstrates how to calculate the proportion or
fraction of the observations associated with each combination of eye and
hair color. The mutate() function creates a new column
proportion_obs which is equal to the n
variable divided by the sum(n).

starwars %>% 
  count(eye_color, hair_color) %>% 
  arrange(desc(n)) %>% 
  mutate(proportion_obs = n / sum(n))

## # A tibble: 35 × 4
##    eye_color hair_color     n proportion_obs
##    <chr>     <chr>      <int>          <dbl>
##  1 black     none           9         0.103 
##  2 brown     black          9         0.103 
##  3 brown     brown          9         0.103 
##  4 blue      brown          7         0.0805
##  5 orange    none           7         0.0805
##  6 yellow    none           6         0.0690
##  7 blue      blond          3         0.0345
##  8 blue      none           3         0.0345
##  9 red       none           3         0.0345
## 10 blue      black          2         0.0230
## # … with 25 more rows
…
starwars %>% 
  group_by(eye_color, hair_color) %>% 
  summarise(num_rows = n()) %>% 
  arrange(desc(num_rows))

## `summarise()` has grouped output by 'eye_color'. You can override using the
## `.groups` argument.

## # A tibble: 35 × 3
## # Groups:   eye_color [15]
##    eye_color hair_color num_rows
##    <chr>     <chr>         <int>
##  1 black     none              9
##  2 brown     black             9
##  3 brown     brown             9
##  4 blue      brown             7
##  5 orange    none              7
##  6 yellow    none              6
##  7 blue      blond             3
##  8 blue      none              3
##  9 red       none              3
## 10 blue      black             2
## # … with 25 more rows
…
starwars %>% 
  group_by(eye_color, hair_color) %>% 
  summarise(num_rows = n()) %>% 
  ungroup() %>% 
  arrange(desc(num_rows))

## `summarise()` has grouped output by 'eye_color'. You can override using the
## `.groups` argument.

## # A tibble: 35 × 3
##    eye_color hair_color num_rows
##    <chr>     <chr>         <int>
##  1 black     none              9
##  2 brown     black             9
##  3 brown     brown             9
##  4 blue      brown             7
##  5 orange    none              7
##  6 yellow    none              6
##  7 blue      blond             3
##  8 blue      none              3
##  9 red       none              3
## 10 blue      black             2
## # … with 25 more rows

Alternatively, we can specify the summarize() function’s
.groups argument to be 'drop'. This “drops”
the grouping and returns a “regular” dataframe (tibble) as the result of
summarize(). This is the approach suggested by the warning
messages displayed in the output of the two previous code chunks.

starwars %>% 
  group_by(eye_color, hair_color) %>% 
  summarise(num_rows = n(),
            .groups = 'drop') %>% 
  arrange(desc(num_rows))

## # A tibble: 35 × 3
##    eye_color hair_color num_rows
##    <chr>     <chr>         <int>
##  1 black     none              9
##  2 brown     black             9
##  3 brown     brown             9
##  4 blue      brown             7
##  5 orange    none              7
##  6 yellow    none              6
##  7 blue      blond             3
##  8 blue      none              3
##  9 red       none              3
## 10 blue      black             2
## # … with 25 more rows
…
starwars %>% 
  group_by(eye_color, hair_color) %>% 
  summarise(num_rows = n(),
            num_home_worlds = n_distinct(homeworld),
            .groups = 'drop') %>% 
  arrange(desc(num_rows))

## # A tibble: 35 × 4
##    eye_color hair_color num_rows num_home_worlds
##    <chr>     <chr>         <int>           <int>
##  1 black     none              9               8
##  2 brown     black             9               7
##  3 brown     brown             9               5
##  4 blue      brown             7               5
##  5 orange    none              7               5
##  6 yellow    none              6               6
##  7 blue      blond             3               2
##  8 blue      none              3               3
##  9 red       none              3               3
## 10 blue      black             2               1
## # … with 25 more rows
…
starwars %>% 
  group_by(eye_color, hair_color) %>% 
  summarise(num_rows = n(),
            num_home_worlds = n_distinct(homeworld),
            num_species = n_distinct(species),
            .groups = 'drop') %>% 
  arrange(desc(num_rows))

## # A tibble: 35 × 5
##    eye_color hair_color num_rows num_home_worlds num_species
##    <chr>     <chr>         <int>           <int>       <int>
##  1 black     none              9               8           8
##  2 brown     black             9               7           3
##  3 brown     brown             9               5           2
##  4 blue      brown             7               5           3
##  5 orange    none              7               5           5
##  6 yellow    none              6               6           6
##  7 blue      blond             3               2           1
##  8 blue      none              3               3           3
##  9 red       none              3               3           3
## 10 blue      black             2               1           1
## # … with 25 more rows
…
Homeworlds and eye color

We have been looking through basic counts of the variables in the
starwars data set. Let’s now see if the
eye_color is associated with a few homeworlds.
The code chunk below displays the numbe rof rows associated with each
homeworld. The two homeworlds with the highest
counts are 'Naboo' and 'Tatooine'. If you know
anything about the Original Trilogy (OT), then you should know about
Tatooine. The planet Naboo was introduced in the Prequel Trilogy
(PT).

starwars %>% count(homeworld) %>% arrange(desc(n))

## # A tibble: 49 × 2
##    homeworld     n
##    <chr>     <int>
##  1 Naboo        11
##  2 Tatooine     10
##  3 <NA>         10
##  4 Alderaan      3
##  5 Coruscant     3
##  6 Kamino        3
##  7 Corellia      2
##  8 Kashyyyk      2
##  9 Mirial        2
## 10 Ryloth        2
## # … with 39 more rows
…
